Lab 6/bcd_xs3.vcd
$date
  Thu Jul 02 12:51:40 2026
$end
$version
  GHDL v0
$end
$timescale
  1 fs
$end
$scope module standard $end
$upscope $end
$scope module std_logic_1164 $end
$upscope $end
$scope module numeric_std $end
$upscope $end
$scope module bcd_xs3_tb $end
$var reg 4 ! bcd[3:0] $end
$var reg 4 " xs3[3:0] $end
$scope module dut $end
$var reg 4 # bcd[3:0] $end
$var reg 4 $ xs3[3:0] $end
$upscope $end
$upscope $end
$enddefinitions $end
#0
b0000 !
b0011 "
b0000 #
b0011 $
#10000000
b0001 !
b0100 "
b0001 #
b0100 $
#20000000
b0010 !
b0101 "
b0010 #
b0101 $
#30000000
b0011 !
b0110 "
b0011 #
b0110 $
#40000000
b0100 !
b0111 "
b0100 #
b0111 $
#50000000
b0101 !
b1000 "
b0101 #
b1000 $
#60000000
b0110 !
b1001 "
b0110 #
b1001 $
#70000000
b0111 !
b1010 "
b0111 #
b1010 $
#80000000
b1000 !
b1011 "
b1000 #
b1011 $
#90000000
b1001 !
b1100 "
b1001 #
b1100 $
