Lab7/flipflops.vcd
$date
  Thu Jul 09 12:49:55 2026
$end
$version
  GHDL v0
$end
$timescale
  1 fs
$end
$scope module standard $end
$upscope $end
$scope module std_logic_1164 $end
$upscope $end
$scope module ff_tb $end
$var reg 1 ! clk $end
$var reg 1 " s $end
$var reg 1 # r $end
$var reg 1 $ d $end
$var reg 1 % j $end
$var reg 1 & k $end
$var reg 1 ' t $end
$var reg 1 ( q_sr $end
$var reg 1 ) q_d $end
$var reg 1 * q_jk $end
$var reg 1 + q_t $end
$var reg 1 , qb_sr $end
$var reg 1 - qb_d $end
$var reg 1 . qb_jk $end
$var reg 1 / qb_t $end
$scope module u1 $end
$var reg 1 0 clk $end
$var reg 1 1 s $end
$var reg 1 2 r $end
$var reg 1 3 q $end
$var reg 1 4 qb $end
$var reg 1 5 q_int $end
$upscope $end
$scope module u2 $end
$var reg 1 6 clk $end
$var reg 1 7 d $end
$var reg 1 8 q $end
$var reg 1 9 qb $end
$var reg 1 : q_int $end
$upscope $end
$scope module u3 $end
$var reg 1 ; clk $end
$var reg 1 < j $end
$var reg 1 = k $end
$var reg 1 > q $end
$var reg 1 ? qb $end
$var reg 1 @ q_int $end
$upscope $end
$scope module u4 $end
$var reg 1 A clk $end
$var reg 1 B t $end
$var reg 1 C q $end
$var reg 1 D qb $end
$var reg 1 E q_int $end
$upscope $end
$upscope $end
$enddefinitions $end
#0
0!
1"
0#
0$
0%
0&
0'
0(
0)
0*
0+
1,
1-
1.
1/
00
11
02
03
14
05
06
07
08
19
0:
0;
0<
0=
0>
1?
0@
0A
0B
0C
1D
0E
#10000000
1!
1(
0,
10
13
04
15
16
1;
1A
#20000000
0!
00
06
0;
0A
#30000000
1!
10
16
1;
1A
#40000000
0!
0"
1#
00
01
12
06
0;
0A
#50000000
1!
0(
1,
10
03
14
05
16
1;
1A
#60000000
0!
00
06
0;
0A
#70000000
1!
10
16
1;
1A
#80000000
0!
0#
00
02
06
0;
0A
#90000000
1!
10
16
1;
1A
#100000000
0!
00
06
0;
0A
#110000000
1!
10
16
1;
1A
#120000000
0!
1$
00
06
17
0;
0A
#130000000
1!
1)
0-
10
16
18
09
1:
1;
1A
#140000000
0!
00
06
0;
0A
#150000000
1!
10
16
1;
1A
#160000000
0!
0$
00
06
07
0;
0A
#170000000
1!
0)
1-
10
16
08
19
0:
1;
1A
#180000000
0!
00
06
0;
0A
#190000000
1!
10
16
1;
1A
#200000000
0!
1%
00
06
0;
1<
0A
#210000000
1!
1*
0.
10
16
1;
1>
0?
1@
1A
#220000000
0!
00
06
0;
0A
#230000000
1!
10
16
1;
1A
#240000000
0!
1&
00
06
0;
1=
0A
#250000000
1!
0*
1.
10
16
1;
0>
1?
0@
1A
#260000000
0!
00
06
0;
0A
#270000000
1!
1*
0.
10
16
1;
1>
0?
1@
1A
#280000000
0!
0%
00
06
0;
0<
0A
#290000000
1!
0*
1.
10
16
1;
0>
1?
0@
1A
#300000000
0!
00
06
0;
0A
#310000000
1!
10
16
1;
1A
#320000000
0!
1'
00
06
0;
0A
1B
#330000000
1!
1+
0/
10
16
1;
1A
1C
0D
1E
#340000000
0!
00
06
0;
0A
#350000000
1!
0+
1/
10
16
1;
1A
0C
1D
0E
#360000000
0!
00
06
0;
0A
#370000000
1!
1+
0/
10
16
1;
1A
1C
0D
1E
#380000000
0!
00
06
0;
0A
#390000000
1!
0+
1/
10
16
1;
1A
0C
1D
0E
#400000000
0!
0'
00
06
0;
0A
0B
